\BOOKMARK [1][-]{section.1}{1. Introduction}{}% 1
\BOOKMARK [1][-]{section.2}{2. Boreal Forest Region}{}% 2
\BOOKMARK [2][-]{subsection.2.1}{2.1. Alaska}{section.2}% 3
\BOOKMARK [3][-]{subsubsection.2.1.1}{2.1.1. Tile h11v02}{subsection.2.1}% 4
\BOOKMARK [3][-]{subsubsection.2.1.2}{2.1.2. Tile h10v02}{subsection.2.1}% 5
\BOOKMARK [2][-]{subsection.2.2}{2.2. Eurasia}{section.2}% 6
\BOOKMARK [3][-]{subsubsection.2.2.1}{2.2.1. Evergreen Needleleaf Forest}{subsection.2.2}% 7
\BOOKMARK [3][-]{subsubsection.2.2.2}{2.2.2. Mixed Forest}{subsection.2.2}% 8
\BOOKMARK [1][-]{section.3}{3. Savanna Region}{}% 9
\BOOKMARK [2][-]{subsection.3.1}{3.1. Africa}{section.3}% 10
\BOOKMARK [3][-]{subsubsection.3.1.1}{3.1.1. Savanna}{subsection.3.1}% 11
\BOOKMARK [3][-]{subsubsection.3.1.2}{3.1.2. Woody Savanna}{subsection.3.1}% 12
\BOOKMARK [2][-]{subsection.3.2}{3.2. South America}{section.3}% 13
\BOOKMARK [3][-]{subsubsection.3.2.1}{3.2.1. Savanna}{subsection.3.2}% 14
\BOOKMARK [3][-]{subsubsection.3.2.2}{3.2.2. Woody Savanna}{subsection.3.2}% 15
\BOOKMARK [2][-]{subsection.3.3}{3.3. Australia}{section.3}% 16
\BOOKMARK [3][-]{subsubsection.3.3.1}{3.3.1. Savanna}{subsection.3.3}% 17
\BOOKMARK [3][-]{subsubsection.3.3.2}{3.3.2. Woody Savanna}{subsection.3.3}% 18
\BOOKMARK [1][-]{section.4}{4. Evergreen Broadleaf Forest - Savanna Region}{}% 19
\BOOKMARK [2][-]{subsection.4.1}{4.1. Africa}{section.4}% 20
\BOOKMARK [3][-]{subsubsection.4.1.1}{4.1.1. Evergreen Broadleaf Forest}{subsection.4.1}% 21
\BOOKMARK [3][-]{subsubsection.4.1.2}{4.1.2. Woody Savanna}{subsection.4.1}% 22
\BOOKMARK [2][-]{subsection.4.2}{4.2. South America}{section.4}% 23
\BOOKMARK [3][-]{subsubsection.4.2.1}{4.2.1. Evergreen Broadleaf Forest}{subsection.4.2}% 24
\BOOKMARK [3][-]{subsubsection.4.2.2}{4.2.2. Savanna}{subsection.4.2}% 25
