\relax 
\providecommand\hyper@newdestlabel[2]{}
\providecommand\HyperFirstAtBeginDocument{\AtBeginDocument}
\HyperFirstAtBeginDocument{\ifx\hyper@anchor\@undefined
\global\let\oldcontentsline\contentsline
\gdef\contentsline#1#2#3#4{\oldcontentsline{#1}{#2}{#3}}
\global\let\oldnewlabel\newlabel
\gdef\newlabel#1#2{\newlabelxx{#1}#2}
\gdef\newlabelxx#1#2#3#4#5#6{\oldnewlabel{#1}{{#2}{#3}}}
\AtEndDocument{\ifx\hyper@anchor\@undefined
\let\contentsline\oldcontentsline
\let\newlabel\oldnewlabel
\fi}
\fi}
\global\let\hyper@last\relax 
\gdef\HyperFirstAtBeginDocument#1{#1}
\providecommand\HyField@AuxAddToFields[1]{}
\providecommand\HyField@AuxAddToCoFields[2]{}
\@writefile{toc}{\contentsline {section}{\tocsection {}{1}{Introduction}}{1}{section.1}}
\@writefile{lof}{\contentsline {figure}{\numberline {1.1}{\ignorespaces Map of IGBP land cover type. Downloaded from NASA website.\relax }}{2}{figure.caption.1}}
\providecommand*\caption@xref[2]{\@setref\relax\@undefined{#1}}
\newlabel{land}{{1.1}{2}{Map of IGBP land cover type. Downloaded from NASA website.\relax }{figure.caption.1}{}}
\@writefile{lof}{\contentsline {figure}{\numberline {1.2}{\ignorespaces Map of MODIS tiles. Blue: boreal forest region; red: savanna region; yellow: evergreen broadleaf forest-savanna region. Downloaded from NASA website.\relax }}{2}{figure.caption.2}}
\newlabel{tile}{{1.2}{2}{Map of MODIS tiles. Blue: boreal forest region; red: savanna region; yellow: evergreen broadleaf forest-savanna region. Downloaded from NASA website.\relax }{figure.caption.2}{}}
\@writefile{toc}{\contentsline {section}{\tocsection {}{2}{Boreal Forest Region}}{3}{section.2}}
\@writefile{toc}{\contentsline {subsection}{\tocsubsection {}{2.1}{Alaska}}{3}{subsection.2.1}}
\@writefile{toc}{\contentsline {subsubsection}{\tocsubsubsection {}{2.1.1}{Tile h11v02}}{3}{subsubsection.2.1.1}}
\@writefile{lof}{\contentsline {figure}{\numberline {2.2}{\ignorespaces Grey lines upper panel: maximum and minimum EVI of pre-fire year. Grey line lower panel: sample size of each time-step.\relax }}{3}{figure.caption.4}}
\@writefile{toc}{\contentsline {subsubsection}{\tocsubsubsection {}{2.1.2}{Tile h10v02}}{5}{subsubsection.2.1.2}}
\@writefile{toc}{\contentsline {subsection}{\tocsubsection {}{2.2}{Eurasia}}{7}{subsection.2.2}}
\@writefile{toc}{\contentsline {subsubsection}{\tocsubsubsection {}{2.2.1}{Evergreen Needleleaf Forest}}{7}{subsubsection.2.2.1}}
\@writefile{toc}{\contentsline {subsubsection}{\tocsubsubsection {}{2.2.2}{Mixed Forest}}{8}{subsubsection.2.2.2}}
\@writefile{toc}{\contentsline {section}{\tocsection {}{3}{Savanna Region}}{9}{section.3}}
\@writefile{toc}{\contentsline {subsection}{\tocsubsection {}{3.1}{Africa}}{9}{subsection.3.1}}
\@writefile{toc}{\contentsline {subsubsection}{\tocsubsubsection {}{3.1.1}{Savanna}}{9}{subsubsection.3.1.1}}
\@writefile{toc}{\contentsline {subsubsection}{\tocsubsubsection {}{3.1.2}{Woody Savanna}}{10}{subsubsection.3.1.2}}
\@writefile{toc}{\contentsline {subsection}{\tocsubsection {}{3.2}{South America}}{11}{subsection.3.2}}
\@writefile{toc}{\contentsline {subsubsection}{\tocsubsubsection {}{3.2.1}{Savanna}}{11}{subsubsection.3.2.1}}
\@writefile{toc}{\contentsline {subsubsection}{\tocsubsubsection {}{3.2.2}{Woody Savanna}}{12}{subsubsection.3.2.2}}
\@writefile{toc}{\contentsline {subsection}{\tocsubsection {}{3.3}{Australia}}{13}{subsection.3.3}}
\@writefile{toc}{\contentsline {subsubsection}{\tocsubsubsection {}{3.3.1}{Savanna}}{13}{subsubsection.3.3.1}}
\@writefile{toc}{\contentsline {subsubsection}{\tocsubsubsection {}{3.3.2}{Woody Savanna}}{14}{subsubsection.3.3.2}}
\@writefile{toc}{\contentsline {section}{\tocsection {}{4}{Evergreen Broadleaf Forest - Savanna Region}}{15}{section.4}}
\@writefile{toc}{\contentsline {subsection}{\tocsubsection {}{4.1}{Africa}}{15}{subsection.4.1}}
\@writefile{toc}{\contentsline {subsubsection}{\tocsubsubsection {}{4.1.1}{Evergreen Broadleaf Forest}}{15}{subsubsection.4.1.1}}
\@writefile{toc}{\contentsline {subsubsection}{\tocsubsubsection {}{4.1.2}{Woody Savanna}}{16}{subsubsection.4.1.2}}
\@writefile{toc}{\contentsline {subsection}{\tocsubsection {}{4.2}{South America}}{17}{subsection.4.2}}
\@writefile{toc}{\contentsline {subsubsection}{\tocsubsubsection {}{4.2.1}{Evergreen Broadleaf Forest}}{17}{subsubsection.4.2.1}}
\newlabel{tocindent-1}{0pt}
\newlabel{tocindent0}{0pt}
\newlabel{tocindent1}{20.22pt}
\newlabel{tocindent2}{30.23999pt}
\newlabel{tocindent3}{35.904pt}
\@writefile{toc}{\contentsline {subsubsection}{\tocsubsubsection {}{4.2.2}{Savanna}}{18}{subsubsection.4.2.2}}
