\relax 
\providecommand\hyper@newdestlabel[2]{}
\providecommand\HyperFirstAtBeginDocument{\AtBeginDocument}
\HyperFirstAtBeginDocument{\ifx\hyper@anchor\@undefined
\global\let\oldcontentsline\contentsline
\gdef\contentsline#1#2#3#4{\oldcontentsline{#1}{#2}{#3}}
\global\let\oldnewlabel\newlabel
\gdef\newlabel#1#2{\newlabelxx{#1}#2}
\gdef\newlabelxx#1#2#3#4#5#6{\oldnewlabel{#1}{{#2}{#3}}}
\AtEndDocument{\ifx\hyper@anchor\@undefined
\let\contentsline\oldcontentsline
\let\newlabel\oldnewlabel
\fi}
\fi}
\global\let\hyper@last\relax 
\gdef\HyperFirstAtBeginDocument#1{#1}
\providecommand\HyField@AuxAddToFields[1]{}
\providecommand\HyField@AuxAddToCoFields[2]{}
\@writefile{toc}{\beamer@endinputifotherversion {3.33pt}}
\@writefile{nav}{\beamer@endinputifotherversion {3.33pt}}
\@writefile{toc}{\beamer@sectionintoc {1}{General Information}{1}{0}{1}}
\@writefile{nav}{\headcommand {\sectionentry {1}{General Information}{1}{General Information}{0}}}
\@writefile{nav}{\headcommand {\beamer@sectionpages {1}{0}}}
\@writefile{nav}{\headcommand {\beamer@subsectionpages {1}{0}}}
\@writefile{toc}{\beamer@subsectionintoc {1}{1}{Tiles and Changes}{1}{0}{1}}
\@writefile{nav}{\headcommand {\beamer@subsectionentry {0}{1}{1}{1}{Tiles and Changes}}\headcommand {\beamer@subsectionpages {1}{0}}}
\@writefile{nav}{\headcommand {\slideentry {1}{1}{1}{1/1}{Tiles and Changes}{0}}}
\@writefile{nav}{\headcommand {\beamer@framepages {1}{1}}}
\newlabel{tile}{{1}{2}{Tiles and Changes}{Doc-Start}{}}
\@writefile{snm}{\beamer@slide {tile}{2}}
\@writefile{nav}{\headcommand {\slideentry {1}{1}{2}{2/2}{Tiles and Changes}{0}}}
\@writefile{nav}{\headcommand {\beamer@framepages {2}{2}}}
\@writefile{toc}{\beamer@sectionintoc {2}{Experiment Tiles}{3}{0}{2}}
\@writefile{nav}{\headcommand {\sectionentry {2}{Experiment Tiles}{3}{Experiment Tiles}{0}}}
\@writefile{nav}{\headcommand {\beamer@sectionpages {1}{2}}}
\@writefile{nav}{\headcommand {\beamer@subsectionpages {1}{2}}}
\@writefile{toc}{\beamer@subsectionintoc {2}{1}{Boreal Forest Region}{3}{0}{2}}
\@writefile{nav}{\headcommand {\beamer@subsectionentry {0}{2}{1}{3}{Boreal Forest Region}}\headcommand {\beamer@subsectionpages {3}{2}}}
\@writefile{nav}{\headcommand {\slideentry {2}{1}{1}{3/3}{Boreal Forest Region}{0}}}
\@writefile{nav}{\headcommand {\beamer@framepages {3}{3}}}
\@writefile{toc}{\beamer@subsubsectionintoc {2}{1}{1}{North America}{4}{0}{2}}
\@writefile{nav}{\headcommand {\beamer@subsubsectionentry {0}{2}{1}{1}{4}{North America}}}
\@writefile{nav}{\headcommand {\slideentry {2}{1}{2}{4/4}{Boreal Forest Region}{0}}}
\@writefile{nav}{\headcommand {\beamer@framepages {4}{4}}}
\@writefile{nav}{\headcommand {\slideentry {2}{1}{3}{5/5}{Boreal Forest Region}{0}}}
\@writefile{nav}{\headcommand {\beamer@framepages {5}{5}}}
\@writefile{nav}{\headcommand {\slideentry {2}{1}{4}{6/6}{Boreal Forest Region}{0}}}
\@writefile{nav}{\headcommand {\beamer@framepages {6}{6}}}
\@writefile{nav}{\headcommand {\slideentry {2}{1}{5}{7/7}{Boreal Forest Region}{0}}}
\@writefile{nav}{\headcommand {\beamer@framepages {7}{7}}}
\@writefile{toc}{\beamer@subsectionintoc {2}{2}{Savanna Region}{8}{0}{2}}
\@writefile{nav}{\headcommand {\beamer@subsectionentry {0}{2}{2}{8}{Savanna Region}}\headcommand {\beamer@subsectionpages {3}{7}}}
\@writefile{nav}{\headcommand {\slideentry {2}{2}{1}{8/8}{Savanna Region}{0}}}
\@writefile{nav}{\headcommand {\beamer@framepages {8}{8}}}
\@writefile{toc}{\beamer@subsubsectionintoc {2}{2}{1}{Africa}{9}{0}{2}}
\@writefile{nav}{\headcommand {\beamer@subsubsectionentry {0}{2}{2}{1}{9}{Africa}}}
\@writefile{nav}{\headcommand {\slideentry {2}{2}{2}{9/9}{Savanna Region}{0}}}
\@writefile{nav}{\headcommand {\beamer@framepages {9}{9}}}
\@writefile{nav}{\headcommand {\slideentry {2}{2}{3}{10/10}{Savanna Region}{0}}}
\@writefile{nav}{\headcommand {\beamer@framepages {10}{10}}}
\@writefile{nav}{\headcommand {\slideentry {2}{2}{4}{11/11}{Savanna Region}{0}}}
\@writefile{nav}{\headcommand {\beamer@framepages {11}{11}}}
\@writefile{nav}{\headcommand {\slideentry {2}{2}{5}{12/12}{Savanna Region}{0}}}
\@writefile{nav}{\headcommand {\beamer@framepages {12}{12}}}
\@writefile{toc}{\beamer@sectionintoc {3}{Other Tiles}{13}{0}{3}}
\@writefile{nav}{\headcommand {\sectionentry {3}{Other Tiles}{13}{Other Tiles}{0}}}
\@writefile{nav}{\headcommand {\beamer@sectionpages {3}{12}}}
\@writefile{nav}{\headcommand {\beamer@subsectionpages {8}{12}}}
\@writefile{toc}{\beamer@subsectionintoc {3}{1}{Boreal Forest Region}{13}{0}{3}}
\@writefile{nav}{\headcommand {\beamer@subsectionentry {0}{3}{1}{13}{Boreal Forest Region}}\headcommand {\beamer@subsectionpages {13}{12}}}
\@writefile{nav}{\headcommand {\slideentry {3}{1}{1}{13/13}{Boreal Forest Region}{0}}}
\@writefile{nav}{\headcommand {\beamer@framepages {13}{13}}}
\@writefile{toc}{\beamer@subsubsectionintoc {3}{1}{1}{North America}{14}{0}{3}}
\@writefile{nav}{\headcommand {\beamer@subsubsectionentry {0}{3}{1}{1}{14}{North America}}}
\@writefile{nav}{\headcommand {\slideentry {3}{1}{2}{14/14}{Boreal Forest Region}{0}}}
\@writefile{nav}{\headcommand {\beamer@framepages {14}{14}}}
\@writefile{nav}{\headcommand {\slideentry {3}{1}{3}{15/15}{Boreal Forest Region}{0}}}
\@writefile{nav}{\headcommand {\beamer@framepages {15}{15}}}
\@writefile{nav}{\headcommand {\slideentry {3}{1}{4}{16/16}{Boreal Forest Region}{0}}}
\@writefile{nav}{\headcommand {\beamer@framepages {16}{16}}}
\@writefile{nav}{\headcommand {\slideentry {3}{1}{5}{17/17}{Boreal Forest Region}{0}}}
\@writefile{nav}{\headcommand {\beamer@framepages {17}{17}}}
\@writefile{nav}{\headcommand {\slideentry {3}{1}{6}{18/18}{Boreal Forest Region}{0}}}
\@writefile{nav}{\headcommand {\beamer@framepages {18}{18}}}
\@writefile{nav}{\headcommand {\slideentry {3}{1}{7}{19/19}{Boreal Forest Region}{0}}}
\@writefile{nav}{\headcommand {\beamer@framepages {19}{19}}}
\@writefile{nav}{\headcommand {\slideentry {3}{1}{8}{20/20}{Boreal Forest Region}{0}}}
\@writefile{nav}{\headcommand {\beamer@framepages {20}{20}}}
\@writefile{nav}{\headcommand {\slideentry {3}{1}{9}{21/21}{Boreal Forest Region}{0}}}
\@writefile{nav}{\headcommand {\beamer@framepages {21}{21}}}
\@writefile{toc}{\beamer@subsectionintoc {3}{2}{Savanna Region}{22}{0}{3}}
\@writefile{nav}{\headcommand {\beamer@subsectionentry {0}{3}{2}{22}{Savanna Region}}\headcommand {\beamer@subsectionpages {13}{21}}}
\@writefile{nav}{\headcommand {\slideentry {3}{2}{1}{22/22}{Savanna Region}{0}}}
\@writefile{nav}{\headcommand {\beamer@framepages {22}{22}}}
\@writefile{toc}{\beamer@subsubsectionintoc {3}{2}{1}{South America}{23}{0}{3}}
\@writefile{nav}{\headcommand {\beamer@subsubsectionentry {0}{3}{2}{1}{23}{South America}}}
\@writefile{nav}{\headcommand {\slideentry {3}{2}{2}{23/23}{Savanna Region}{0}}}
\@writefile{nav}{\headcommand {\beamer@framepages {23}{23}}}
\@writefile{nav}{\headcommand {\slideentry {3}{2}{3}{24/24}{Savanna Region}{0}}}
\@writefile{nav}{\headcommand {\beamer@framepages {24}{24}}}
\@writefile{nav}{\headcommand {\slideentry {3}{2}{4}{25/25}{Savanna Region}{0}}}
\@writefile{nav}{\headcommand {\beamer@framepages {25}{25}}}
\@writefile{nav}{\headcommand {\slideentry {3}{2}{5}{26/26}{Savanna Region}{0}}}
\@writefile{nav}{\headcommand {\beamer@framepages {26}{26}}}
\@writefile{toc}{\beamer@subsubsectionintoc {3}{2}{2}{Africa}{27}{0}{3}}
\@writefile{nav}{\headcommand {\beamer@subsubsectionentry {0}{3}{2}{2}{27}{Africa}}}
\@writefile{nav}{\headcommand {\slideentry {3}{2}{6}{27/27}{Savanna Region}{0}}}
\@writefile{nav}{\headcommand {\beamer@framepages {27}{27}}}
\@writefile{nav}{\headcommand {\slideentry {3}{2}{7}{28/28}{Savanna Region}{0}}}
\@writefile{nav}{\headcommand {\beamer@framepages {28}{28}}}
\@writefile{nav}{\headcommand {\slideentry {3}{2}{8}{29/29}{Savanna Region}{0}}}
\@writefile{nav}{\headcommand {\beamer@framepages {29}{29}}}
\@writefile{nav}{\headcommand {\slideentry {3}{2}{9}{30/30}{Savanna Region}{0}}}
\@writefile{nav}{\headcommand {\beamer@framepages {30}{30}}}
\@writefile{nav}{\headcommand {\slideentry {3}{2}{10}{31/31}{Savanna Region}{0}}}
\@writefile{nav}{\headcommand {\beamer@framepages {31}{31}}}
\@writefile{nav}{\headcommand {\slideentry {3}{2}{11}{32/32}{Savanna Region}{0}}}
\@writefile{nav}{\headcommand {\beamer@framepages {32}{32}}}
\@writefile{nav}{\headcommand {\slideentry {3}{2}{12}{33/33}{Savanna Region}{0}}}
\@writefile{nav}{\headcommand {\beamer@framepages {33}{33}}}
\@writefile{nav}{\headcommand {\slideentry {3}{2}{13}{34/34}{Savanna Region}{0}}}
\@writefile{nav}{\headcommand {\beamer@framepages {34}{34}}}
\@writefile{toc}{\beamer@subsectionintoc {3}{3}{Evergreen Broadleaf Forest-Savanna Region}{35}{0}{3}}
\@writefile{nav}{\headcommand {\beamer@subsectionentry {0}{3}{3}{35}{Evergreen Broadleaf Forest-Savanna Region}}\headcommand {\beamer@subsectionpages {22}{34}}}
\@writefile{nav}{\headcommand {\slideentry {3}{3}{1}{35/35}{Evergreen Broadleaf Forest-Savanna Region}{0}}}
\@writefile{nav}{\headcommand {\beamer@framepages {35}{35}}}
\@writefile{toc}{\beamer@subsubsectionintoc {3}{3}{1}{South America}{36}{0}{3}}
\@writefile{nav}{\headcommand {\beamer@subsubsectionentry {0}{3}{3}{1}{36}{South America}}}
\@writefile{nav}{\headcommand {\slideentry {3}{3}{2}{36/36}{Evergreen Broadleaf Forest-Savanna Region}{0}}}
\@writefile{nav}{\headcommand {\beamer@framepages {36}{36}}}
\@writefile{nav}{\headcommand {\slideentry {3}{3}{3}{37/37}{Evergreen Broadleaf Forest-Savanna Region}{0}}}
\@writefile{nav}{\headcommand {\beamer@framepages {37}{37}}}
\@writefile{nav}{\headcommand {\slideentry {3}{3}{4}{38/38}{Evergreen Broadleaf Forest-Savanna Region}{0}}}
\@writefile{nav}{\headcommand {\beamer@framepages {38}{38}}}
\@writefile{nav}{\headcommand {\slideentry {3}{3}{5}{39/39}{Evergreen Broadleaf Forest-Savanna Region}{0}}}
\@writefile{nav}{\headcommand {\beamer@framepages {39}{39}}}
\@writefile{nav}{\headcommand {\beamer@partpages {1}{39}}}
\@writefile{nav}{\headcommand {\beamer@subsectionpages {1}{39}}}
\@writefile{nav}{\headcommand {\beamer@sectionpages {1}{39}}}
\@writefile{nav}{\headcommand {\beamer@documentpages {39}}}
\@writefile{nav}{\headcommand {\def \inserttotalframenumber {39}}}
