\relax 
\providecommand\hyper@newdestlabel[2]{}
\providecommand\HyperFirstAtBeginDocument{\AtBeginDocument}
\HyperFirstAtBeginDocument{\ifx\hyper@anchor\@undefined
\global\let\oldcontentsline\contentsline
\gdef\contentsline#1#2#3#4{\oldcontentsline{#1}{#2}{#3}}
\global\let\oldnewlabel\newlabel
\gdef\newlabel#1#2{\newlabelxx{#1}#2}
\gdef\newlabelxx#1#2#3#4#5#6{\oldnewlabel{#1}{{#2}{#3}}}
\AtEndDocument{\ifx\hyper@anchor\@undefined
\let\contentsline\oldcontentsline
\let\newlabel\oldnewlabel
\fi}
\fi}
\global\let\hyper@last\relax 
\gdef\HyperFirstAtBeginDocument#1{#1}
\providecommand\HyField@AuxAddToFields[1]{}
\providecommand\HyField@AuxAddToCoFields[2]{}
\@writefile{toc}{\beamer@endinputifotherversion {3.33pt}}
\@writefile{nav}{\beamer@endinputifotherversion {3.33pt}}
\@writefile{toc}{\beamer@sectionintoc {1}{General Information}{1}{0}{1}}
\@writefile{nav}{\headcommand {\sectionentry {1}{General Information}{1}{General Information}{0}}}
\@writefile{nav}{\headcommand {\beamer@sectionpages {1}{0}}}
\@writefile{nav}{\headcommand {\beamer@subsectionpages {1}{0}}}
\@writefile{toc}{\beamer@subsectionintoc {1}{1}{Abstract and Changes}{1}{0}{1}}
\@writefile{nav}{\headcommand {\beamer@subsectionentry {0}{1}{1}{1}{Abstract and Changes}}\headcommand {\beamer@subsectionpages {1}{0}}}
\@writefile{nav}{\headcommand {\slideentry {1}{1}{1}{1/1}{Abstract and Changes}{0}}}
\@writefile{nav}{\headcommand {\beamer@framepages {1}{1}}}
\newlabel{tile}{{1}{2}{Abstract and Changes}{Doc-Start}{}}
\@writefile{snm}{\beamer@slide {tile}{2}}
\@writefile{nav}{\headcommand {\slideentry {1}{1}{2}{2/2}{Abstract and Changes}{0}}}
\@writefile{nav}{\headcommand {\beamer@framepages {2}{2}}}
\@writefile{toc}{\beamer@sectionintoc {2}{Results}{3}{0}{2}}
\@writefile{nav}{\headcommand {\sectionentry {2}{Results}{3}{Results}{0}}}
\@writefile{nav}{\headcommand {\beamer@sectionpages {1}{2}}}
\@writefile{nav}{\headcommand {\beamer@subsectionpages {1}{2}}}
\@writefile{toc}{\beamer@subsectionintoc {2}{1}{Boreal Region}{3}{0}{2}}
\@writefile{nav}{\headcommand {\beamer@subsectionentry {0}{2}{1}{3}{Boreal Region}}\headcommand {\beamer@subsectionpages {3}{2}}}
\@writefile{nav}{\headcommand {\slideentry {2}{1}{1}{3/3}{Boreal Region}{0}}}
\@writefile{nav}{\headcommand {\beamer@framepages {3}{3}}}
\@writefile{toc}{\beamer@subsubsectionintoc {2}{1}{1}{North America}{4}{0}{2}}
\@writefile{nav}{\headcommand {\beamer@subsubsectionentry {0}{2}{1}{1}{4}{North America}}}
\@writefile{nav}{\headcommand {\slideentry {2}{1}{2}{4/4}{Boreal Region}{0}}}
\@writefile{nav}{\headcommand {\beamer@framepages {4}{4}}}
\@writefile{nav}{\headcommand {\slideentry {2}{1}{3}{5/5}{Boreal Region}{0}}}
\@writefile{nav}{\headcommand {\beamer@framepages {5}{5}}}
\@writefile{nav}{\headcommand {\slideentry {2}{1}{4}{6/6}{Boreal Region}{0}}}
\@writefile{nav}{\headcommand {\beamer@framepages {6}{6}}}
\@writefile{nav}{\headcommand {\slideentry {2}{1}{5}{7/7}{Boreal Region}{0}}}
\@writefile{nav}{\headcommand {\beamer@framepages {7}{7}}}
\@writefile{toc}{\beamer@subsectionintoc {2}{2}{Tropical Region}{8}{0}{2}}
\@writefile{nav}{\headcommand {\beamer@subsectionentry {0}{2}{2}{8}{Tropical Region}}\headcommand {\beamer@subsectionpages {3}{7}}}
\@writefile{nav}{\headcommand {\slideentry {2}{2}{1}{8/8}{Tropical Region}{0}}}
\@writefile{nav}{\headcommand {\beamer@framepages {8}{8}}}
\@writefile{toc}{\beamer@subsubsectionintoc {2}{2}{1}{South America}{9}{0}{2}}
\@writefile{nav}{\headcommand {\beamer@subsubsectionentry {0}{2}{2}{1}{9}{South America}}}
\@writefile{nav}{\headcommand {\slideentry {2}{2}{2}{9/9}{Tropical Region}{0}}}
\@writefile{nav}{\headcommand {\beamer@framepages {9}{9}}}
\@writefile{nav}{\headcommand {\slideentry {2}{2}{3}{10/10}{Tropical Region}{0}}}
\@writefile{nav}{\headcommand {\beamer@framepages {10}{10}}}
\@writefile{nav}{\headcommand {\slideentry {2}{2}{4}{11/11}{Tropical Region}{0}}}
\@writefile{nav}{\headcommand {\beamer@framepages {11}{11}}}
\@writefile{nav}{\headcommand {\slideentry {2}{2}{5}{12/12}{Tropical Region}{0}}}
\@writefile{nav}{\headcommand {\beamer@framepages {12}{12}}}
\@writefile{nav}{\headcommand {\slideentry {2}{2}{6}{13/13}{Tropical Region}{0}}}
\@writefile{nav}{\headcommand {\beamer@framepages {13}{13}}}
\@writefile{nav}{\headcommand {\slideentry {2}{2}{7}{14/14}{Tropical Region}{0}}}
\@writefile{nav}{\headcommand {\beamer@framepages {14}{14}}}
\@writefile{toc}{\beamer@subsubsectionintoc {2}{2}{2}{Africa}{15}{0}{2}}
\@writefile{nav}{\headcommand {\beamer@subsubsectionentry {0}{2}{2}{2}{15}{Africa}}}
\@writefile{nav}{\headcommand {\slideentry {2}{2}{8}{15/15}{Tropical Region}{0}}}
\@writefile{nav}{\headcommand {\beamer@framepages {15}{15}}}
\@writefile{nav}{\headcommand {\slideentry {2}{2}{9}{16/16}{Tropical Region}{0}}}
\@writefile{nav}{\headcommand {\beamer@framepages {16}{16}}}
\@writefile{nav}{\headcommand {\slideentry {2}{2}{10}{17/17}{Tropical Region}{0}}}
\@writefile{nav}{\headcommand {\beamer@framepages {17}{17}}}
\@writefile{nav}{\headcommand {\slideentry {2}{2}{11}{18/18}{Tropical Region}{0}}}
\@writefile{nav}{\headcommand {\beamer@framepages {18}{18}}}
\@writefile{nav}{\headcommand {\slideentry {2}{2}{12}{19/19}{Tropical Region}{0}}}
\@writefile{nav}{\headcommand {\beamer@framepages {19}{19}}}
\@writefile{nav}{\headcommand {\slideentry {2}{2}{13}{20/20}{Tropical Region}{0}}}
\@writefile{nav}{\headcommand {\beamer@framepages {20}{20}}}
\@writefile{nav}{\headcommand {\beamer@partpages {1}{20}}}
\@writefile{nav}{\headcommand {\beamer@subsectionpages {1}{20}}}
\@writefile{nav}{\headcommand {\beamer@sectionpages {1}{20}}}
\@writefile{nav}{\headcommand {\beamer@documentpages {20}}}
\@writefile{nav}{\headcommand {\def \inserttotalframenumber {20}}}
