No fire data for 2000,001;
No fire data for 2000,017;
No fire data for 2000,033;
No fire data for 2000,049;
No fire data for 2000,065;
No fire data for 2000,081;
No fire data for 2000,097;
No fire data for 2000,113;
No fire data for 2000,129;
No fire data for 2000,145;
No fire data for 2000,161;
No fire data for 2000,177;
No fire data for 2000,193;
No fire data for 2000,209;
