# Fdb version 3
["pdflatex"] 1405709663 "test.tex" "test.pdf" "test" 1405709664
  "/usr/local/texlive/2014/texmf-dist/tex/context/base/supp-pdf.mkii" 1337017135 71627 94eb9990bed73c364d7f53f960cc8c5b ""
  "/usr/local/texlive/2014/texmf-dist/tex/generic/oberdiek/etexcmds.sty" 1335995445 7612 c47308d923ec19888707b0f1792b326a ""
  "/usr/local/texlive/2014/texmf-dist/tex/generic/oberdiek/ifluatex.sty" 1303254447 7324 11d14f318d865f420e692d4e6c9c18c3 ""
  "/usr/local/texlive/2014/texmf-dist/tex/generic/oberdiek/infwarerr.sty" 1335995445 8253 3bdedc8409aa5d290a2339be6f09af03 ""
  "/usr/local/texlive/2014/texmf-dist/tex/generic/oberdiek/kvsetkeys.sty" 1335995445 14040 8de9f47fabc4ca3bd69b6d795e32751c ""
  "/usr/local/texlive/2014/texmf-dist/tex/generic/oberdiek/ltxcmds.sty" 1335995445 18425 775b341047ce304520cc7c11ca41392e ""
  "/usr/local/texlive/2014/texmf-dist/tex/generic/pgf/utilities/pgfkeys.code.tex" 1393459310 36194 e194ef4e0b396b531a3891feb4b1cc22 ""
  "/usr/local/texlive/2014/texmf-dist/tex/generic/pgf/utilities/pgfkeysfiltered.code.tex" 1393459310 33377 af391d6ad1bfcbe2278e191f48e43ba8 ""
  "/usr/local/texlive/2014/texmf-dist/tex/generic/xstring/xstring.sty" 1269905706 144 0ca8d67b000b795a4d9ec000e0fd09c7 ""
  "/usr/local/texlive/2014/texmf-dist/tex/generic/xstring/xstring.tex" 1381789620 54373 fd4487ae3e45d4074bc89aea1d2b6807 ""
  "/usr/local/texlive/2014/texmf-dist/tex/latex/base/article.cls" 1399675188 20496 66dd832c447553f6776fbeac03bb0580 ""
  "/usr/local/texlive/2014/texmf-dist/tex/latex/base/size10.clo" 1399675188 8967 546f1b177fd18efd7ad74d77a7bdac64 ""
  "/usr/local/texlive/2014/texmf-dist/tex/latex/caption/newfloat.sty" 1368312746 24054 593cc8f0806371b1c3cc8ed561bc5fc7 ""
  "/usr/local/texlive/2014/texmf-dist/tex/latex/currfile/currfile.sty" 1359845157 10710 2c2b287db47e7296c74181badfd9eaf9 ""
  "/usr/local/texlive/2014/texmf-dist/tex/latex/etex-pkg/etex.sty" 1214928088 15274 9f6a2469ac8ebe6168e12b8f32cbe599 ""
  "/usr/local/texlive/2014/texmf-dist/tex/latex/etoolbox/etoolbox.sty" 1294098555 41188 02561c41bb08b479074b6e76f0b7d639 ""
  "/usr/local/texlive/2014/texmf-dist/tex/latex/fancyvrb/fancyvrb.sty" 1274829816 45360 a0833d32f1b541964596b02870342d5a ""
  "/usr/local/texlive/2014/texmf-dist/tex/latex/filehook/filehook.sty" 1318545832 12104 88bda8c1ae09e2b6dc29ed32629eafa1 ""
  "/usr/local/texlive/2014/texmf-dist/tex/latex/graphics/keyval.sty" 1399675188 2317 0ace13e225e9d95dd9defe947adc9fbb ""
  "/usr/local/texlive/2014/texmf-dist/tex/latex/latexconfig/color.cfg" 1254097189 802 7b8c8d72c24d795ed7720e4dfd29bff3 ""
  "/usr/local/texlive/2014/texmf-dist/tex/latex/oberdiek/kvoptions.sty" 1335995445 22417 c74ff4af6a1aa2b65d1924020edbbe11 ""
  "/usr/local/texlive/2014/texmf-dist/tex/latex/pdftex-def/pdftex.def" 1306616590 55368 3c8a0d99822330f2dfabc0dfb09ce897 ""
  "/usr/local/texlive/2014/texmf-dist/tex/latex/pgf/utilities/pgfkeys.sty" 1203727794 274 4cad6e665cc93ac2ac979039a94fa1e1 ""
  "/usr/local/texlive/2014/texmf-dist/tex/latex/pgfopts/pgfopts.sty" 1312309365 5527 bb203a51737ac6a5dd684f0ad828dcc6 ""
  "/usr/local/texlive/2014/texmf-dist/tex/latex/pythontex/pythontex.sty" 1379028972 61205 b4a8f436a3d3adc1ca678f1c376b68b6 ""
  "/usr/local/texlive/2014/texmf-dist/tex/latex/upquote/upquote.sty" 1334873510 1048 517e01cde97c1c0baf72e69d43aa5a2e ""
  "/usr/local/texlive/2014/texmf-dist/tex/latex/xcolor/xcolor.sty" 1169481954 55224 a43bab84e0ac5e6efcaf9a98bde73a94 ""
  "/usr/local/texlive/2014/texmf-dist/web2c/texmf.cnf" 1398200874 31722 4f52421e59a4b9e910cf18e64c1f2b4a ""
  "/usr/local/texlive/2014/texmf-var/web2c/pdftex/pdflatex.fmt" 1401025990 3832012 904d82bdcc8abf2b1cd296990b82553b ""
  "/usr/local/texlive/2014/texmf.cnf" 1401025936 577 a59edbde8d3a8c549d0eeaab1739e2ff ""
  "test.aux" 1405709664 8 a94a2480d3289e625eea47cd1b285758 ""
  "test.tex" 1405709648 200 b71d4fdeb6419ddf4abcb41430aacc6c ""
  (generated)
  "test.pytxcode"
  "test.pdf"
  "test.log"
  "test.aux"
